<?xml version="1.0" encoding="UTF-8" standalone="no"?>
<svg width="71px" height="45px" viewBox="0 0 71 45" version="1.1" xmlns="http://www.w3.org/2000/svg" xmlns:xlink="http://www.w3.org/1999/xlink" xmlns:sketch="http://www.bohemiancoding.com/sketch/ns">
    <!-- Generator: Sketch 3.3.1 (12002) - http://www.bohemiancoding.com/sketch -->
    <title>Imported Layers</title>
    <desc>Created with Sketch.</desc>
    <defs></defs>
    <g id="Page-1" stroke="none" stroke-width="1" fill="none" fill-rule="evenodd" sketch:type="MSPage">
        <g id="Imported-Layers" sketch:type="MSLayerGroup" fill="#000000">
            <path d="M11.594,10.352 L8.668,10.352 L7.896,8.431 L3.78,8.431 L2.994,10.352 L0.068,10.352 L4.259,0.877 L7.417,0.877 L11.594,10.352 L11.594,10.352 Z M7.239,6.783 L5.852,3.324 L4.45,6.783 L7.239,6.783 L7.239,6.783 Z" id="Fill-1" sketch:type="MSShapeGroup"></path>
            <path d="M18.566,3.769 L17.657,6.236 C17.284,5.881 16.905,5.703 16.522,5.703 C16.176,5.703 15.876,5.82 15.623,6.055 C15.371,6.29 15.128,6.724 14.895,7.357 L14.895,10.352 L12.435,10.352 L12.435,3.393 L14.895,3.393 L14.895,5.074 C15.05,4.66 15.324,4.255 15.716,3.861 C16.108,3.467 16.568,3.27 17.097,3.27 C17.374,3.27 17.617,3.31 17.825,3.393 C18.032,3.475 18.279,3.6 18.566,3.769" id="Fill-2" sketch:type="MSShapeGroup"></path>
            <path d="M24.644,9.948 C24.388,10.071 24.036,10.19 23.587,10.304 C23.139,10.417 22.709,10.475 22.299,10.475 C20.526,10.475 19.64,9.609 19.64,7.877 L19.64,5.102 L18.525,5.102 L18.525,4.671 L21.827,1.308 L22.107,1.308 L22.107,3.393 L24.459,3.393 L24.459,5.102 L22.107,5.102 L22.107,7.33 C22.107,7.59 22.124,7.799 22.155,7.959 C22.187,8.119 22.277,8.252 22.425,8.359 C22.573,8.466 22.798,8.52 23.099,8.52 C23.491,8.52 24.005,8.355 24.644,8.027 L24.644,9.948" id="Fill-3" sketch:type="MSShapeGroup"></path>
            <path d="M9.393,20.657 C9.393,21.008 9.332,21.351 9.211,21.686 C9.091,22.021 8.896,22.333 8.627,22.623 C8.358,22.912 7.995,23.146 7.537,23.327 C7.079,23.507 6.54,23.597 5.92,23.597 L4.047,23.597 L4.047,27.151 L1.189,27.151 L1.189,17.677 L5.92,17.677 C6.54,17.677 7.079,17.768 7.537,17.95 C7.995,18.132 8.358,18.37 8.627,18.661 C8.896,18.953 9.091,19.27 9.211,19.611 C9.332,19.953 9.393,20.302 9.393,20.657 L9.393,20.657 Z M6.48,20.671 C6.48,20.22 6.347,19.911 6.081,19.745 C5.814,19.578 5.336,19.495 4.648,19.495 L4.047,19.495 L4.047,21.778 L4.662,21.778 C5.136,21.778 5.5,21.749 5.756,21.689 C6.011,21.63 6.196,21.521 6.31,21.361 C6.423,21.202 6.48,20.972 6.48,20.671 L6.48,20.671 Z" id="Fill-4" sketch:type="MSShapeGroup"></path>
            <path d="M18.006,27.151 L15.545,27.151 L15.545,23.542 C15.545,23.515 15.546,23.488 15.548,23.463 C15.551,23.438 15.552,23.385 15.552,23.303 C15.552,22.97 15.481,22.665 15.34,22.387 C15.199,22.109 14.93,21.97 14.533,21.97 C14.223,21.97 13.95,22.073 13.713,22.281 C13.476,22.488 13.25,22.749 13.036,23.063 L13.036,27.151 L10.575,27.151 L10.575,17.677 L13.036,17.677 L13.036,21.19 C13.442,20.757 13.843,20.462 14.239,20.305 C14.636,20.148 15.057,20.069 15.504,20.069 C17.172,20.069 18.006,21.006 18.006,22.879 L18.006,27.151" id="Fill-5" sketch:type="MSShapeGroup"></path>
            <path d="M27.166,23.665 C27.166,24.358 27.016,24.975 26.715,25.518 C26.414,26.06 25.964,26.488 25.365,26.803 C24.766,27.117 24.035,27.274 23.174,27.274 C22.313,27.274 21.582,27.117 20.983,26.803 C20.384,26.488 19.935,26.06 19.636,25.518 C19.338,24.975 19.188,24.358 19.188,23.665 C19.188,23.141 19.271,22.665 19.438,22.236 C19.604,21.808 19.857,21.429 20.197,21.098 C20.536,20.768 20.955,20.514 21.451,20.336 C21.948,20.158 22.522,20.069 23.174,20.069 C23.83,20.069 24.41,20.159 24.914,20.339 C25.417,20.52 25.834,20.771 26.165,21.095 C26.495,21.418 26.745,21.796 26.913,22.229 C27.081,22.663 27.166,23.141 27.166,23.665 L27.166,23.665 Z M24.575,23.665 C24.575,23.114 24.456,22.682 24.216,22.37 C23.977,22.058 23.629,21.901 23.174,21.901 C22.723,21.901 22.377,22.058 22.138,22.37 C21.899,22.682 21.779,23.114 21.779,23.665 C21.779,24.212 21.9,24.645 22.142,24.964 C22.383,25.283 22.727,25.442 23.174,25.442 C23.629,25.442 23.977,25.284 24.216,24.967 C24.456,24.65 24.575,24.216 24.575,23.665 L24.575,23.665 Z" id="Fill-6" sketch:type="MSShapeGroup"></path>
            <path d="M33.934,26.748 C33.678,26.871 33.326,26.99 32.877,27.104 C32.429,27.217 31.999,27.274 31.589,27.274 C29.816,27.274 28.93,26.409 28.93,24.677 L28.93,21.901 L27.815,21.901 L27.815,21.471 L31.117,18.107 L31.397,18.107 L31.397,20.192 L33.749,20.192 L33.749,21.901 L31.397,21.901 L31.397,24.13 C31.397,24.39 31.414,24.599 31.445,24.759 C31.477,24.918 31.567,25.052 31.715,25.159 C31.863,25.266 32.088,25.319 32.389,25.319 C32.781,25.319 33.295,25.155 33.934,24.827 L33.934,26.748" id="Fill-7" sketch:type="MSShapeGroup"></path>
            <path d="M42.697,23.665 C42.697,24.358 42.547,24.975 42.246,25.518 C41.945,26.06 41.495,26.488 40.896,26.803 C40.297,27.117 39.566,27.274 38.705,27.274 C37.844,27.274 37.113,27.117 36.514,26.803 C35.915,26.488 35.466,26.06 35.167,25.518 C34.869,24.975 34.72,24.358 34.72,23.665 C34.72,23.141 34.803,22.665 34.969,22.236 C35.136,21.808 35.389,21.429 35.728,21.098 C36.067,20.768 36.486,20.514 36.982,20.336 C37.479,20.158 38.053,20.069 38.705,20.069 C39.361,20.069 39.941,20.159 40.445,20.339 C40.948,20.52 41.365,20.771 41.696,21.095 C42.026,21.418 42.276,21.796 42.444,22.229 C42.613,22.663 42.697,23.141 42.697,23.665 L42.697,23.665 Z M40.106,23.665 C40.106,23.114 39.987,22.682 39.748,22.37 C39.508,22.058 39.161,21.901 38.705,21.901 C38.254,21.901 37.909,22.058 37.669,22.37 C37.43,22.682 37.311,23.114 37.311,23.665 C37.311,24.212 37.431,24.645 37.673,24.964 C37.915,25.283 38.258,25.442 38.705,25.442 C39.161,25.442 39.508,25.284 39.748,24.967 C39.987,24.65 40.106,24.216 40.106,23.665 L40.106,23.665 Z" id="Fill-8" sketch:type="MSShapeGroup"></path>
            <path d="M11.327,39.208 C11.327,40.092 11.123,40.905 10.715,41.648 C10.308,42.391 9.7,42.981 8.894,43.418 C8.087,43.856 7.105,44.075 5.947,44.075 C4.776,44.075 3.785,43.847 2.974,43.391 C2.163,42.935 1.56,42.336 1.166,41.593 C0.771,40.851 0.574,40.055 0.574,39.208 C0.574,38.355 0.77,37.559 1.162,36.818 C1.554,36.078 2.157,35.481 2.97,35.027 C3.784,34.574 4.776,34.347 5.947,34.347 C6.822,34.347 7.603,34.477 8.289,34.737 C8.975,34.997 9.539,35.349 9.98,35.793 C10.422,36.237 10.757,36.754 10.985,37.345 C11.213,37.935 11.327,38.556 11.327,39.208 L11.327,39.208 Z M8.415,39.208 C8.415,38.852 8.363,38.527 8.258,38.233 C8.153,37.939 7.995,37.684 7.783,37.468 C7.571,37.251 7.312,37.083 7.007,36.962 C6.702,36.841 6.348,36.781 5.947,36.781 C5.182,36.781 4.58,37.004 4.143,37.451 C3.705,37.897 3.486,38.483 3.486,39.208 C3.486,39.932 3.706,40.519 4.146,40.968 C4.586,41.417 5.186,41.641 5.947,41.641 C6.471,41.641 6.918,41.538 7.287,41.33 C7.656,41.123 7.937,40.835 8.128,40.469 C8.319,40.102 8.415,39.682 8.415,39.208 L8.415,39.208 Z" id="Fill-9" sketch:type="MSShapeGroup"></path>
            <path d="M20.344,40.52 C20.344,41.327 20.186,41.996 19.872,42.526 C19.558,43.057 19.157,43.448 18.669,43.699 C18.181,43.949 17.685,44.075 17.179,44.075 C16.814,44.075 16.498,44.033 16.232,43.948 C15.965,43.864 15.758,43.773 15.61,43.675 C15.462,43.577 15.308,43.459 15.148,43.323 L15.148,43.952 L12.687,43.952 L12.687,34.477 L15.148,34.477 L15.148,37.403 C15.331,37.262 15.581,37.137 15.9,37.03 C16.219,36.923 16.588,36.87 17.008,36.87 C17.568,36.87 18.063,36.971 18.491,37.174 C18.919,37.376 19.269,37.651 19.54,37.998 C19.811,38.344 20.013,38.732 20.145,39.163 C20.278,39.594 20.344,40.046 20.344,40.52 L20.344,40.52 Z M17.753,40.465 C17.753,39.868 17.619,39.414 17.35,39.102 C17.081,38.79 16.762,38.633 16.393,38.633 C16.023,38.633 15.609,38.781 15.148,39.078 L15.148,41.737 C15.495,42.065 15.91,42.229 16.393,42.229 C16.698,42.229 17.001,42.105 17.302,41.856 C17.602,41.608 17.753,41.145 17.753,40.465 L17.753,40.465 Z" id="Fill-10" sketch:type="MSShapeGroup"></path>
            <path d="M27.063,41.921 C27.063,42.56 26.83,43.078 26.363,43.477 C25.895,43.876 25.202,44.075 24.281,44.075 C23.766,44.075 23.308,44.028 22.907,43.935 C22.506,43.841 22.069,43.708 21.595,43.535 L21.595,41.785 C22.009,42.021 22.37,42.202 22.675,42.325 C22.98,42.448 23.315,42.509 23.68,42.509 C24.295,42.509 24.602,42.341 24.602,42.003 C24.602,41.89 24.558,41.788 24.469,41.699 C24.38,41.61 24.226,41.51 24.004,41.398 C23.783,41.287 23.488,41.153 23.119,40.999 C22.664,40.798 22.276,40.529 21.957,40.192 C21.638,39.855 21.479,39.442 21.479,38.955 C21.479,38.608 21.584,38.275 21.796,37.956 C22.008,37.638 22.329,37.376 22.757,37.174 C23.185,36.971 23.703,36.87 24.309,36.87 C24.455,36.87 24.64,36.88 24.866,36.9 C25.091,36.921 25.376,36.975 25.72,37.061 C26.064,37.147 26.391,37.27 26.701,37.43 L26.701,39.132 C26.555,39.046 26.434,38.973 26.335,38.914 C26.237,38.854 26.106,38.788 25.942,38.715 C25.778,38.643 25.586,38.578 25.365,38.521 C25.144,38.463 24.917,38.435 24.685,38.435 C24.402,38.435 24.208,38.49 24.103,38.599 C23.999,38.708 23.946,38.818 23.946,38.927 C23.946,39.041 24.001,39.147 24.11,39.245 C24.22,39.343 24.463,39.465 24.842,39.611 C25.389,39.82 25.826,40.036 26.154,40.257 C26.482,40.478 26.716,40.721 26.855,40.985 C26.994,41.249 27.063,41.562 27.063,41.921" id="Fill-11" sketch:type="MSShapeGroup"></path>
            <path d="M35.533,41.067 L30.632,41.067 C30.728,41.491 30.962,41.837 31.336,42.106 C31.709,42.375 32.133,42.509 32.607,42.509 C33.437,42.509 34.353,42.277 35.355,41.812 L35.355,43.336 C34.996,43.523 34.559,43.693 34.046,43.846 C33.534,43.999 32.881,44.075 32.088,44.075 C31.231,44.075 30.502,43.915 29.9,43.596 C29.299,43.277 28.849,42.844 28.55,42.297 C28.252,41.75 28.103,41.131 28.103,40.438 C28.103,39.754 28.252,39.143 28.55,38.602 C28.849,38.062 29.299,37.639 29.9,37.331 C30.502,37.023 31.231,36.87 32.088,36.87 C32.653,36.87 33.199,36.992 33.725,37.235 C34.251,37.479 34.685,37.878 35.024,38.432 C35.363,38.985 35.533,39.7 35.533,40.575 L35.533,41.067 L35.533,41.067 Z M33.223,39.85 C33.223,39.403 33.112,39.047 32.891,38.78 C32.67,38.514 32.352,38.38 31.937,38.38 C31.527,38.38 31.196,38.516 30.943,38.787 C30.69,39.058 30.563,39.413 30.563,39.85 L33.223,39.85 L33.223,39.85 Z" id="Fill-12" sketch:type="MSShapeGroup"></path>
            <path d="M42.185,41.921 C42.185,42.56 41.951,43.078 41.484,43.477 C41.017,43.876 40.323,44.075 39.402,44.075 C38.887,44.075 38.429,44.028 38.028,43.935 C37.627,43.841 37.19,43.708 36.716,43.535 L36.716,41.785 C37.13,42.021 37.491,42.202 37.796,42.325 C38.101,42.448 38.436,42.509 38.801,42.509 C39.416,42.509 39.724,42.341 39.724,42.003 C39.724,41.89 39.679,41.788 39.59,41.699 C39.501,41.61 39.347,41.51 39.125,41.398 C38.904,41.287 38.609,41.153 38.24,40.999 C37.785,40.798 37.397,40.529 37.078,40.192 C36.759,39.855 36.6,39.442 36.6,38.955 C36.6,38.608 36.706,38.275 36.917,37.956 C37.129,37.638 37.45,37.376 37.878,37.174 C38.306,36.971 38.824,36.87 39.43,36.87 C39.576,36.87 39.761,36.88 39.987,36.9 C40.212,36.921 40.497,36.975 40.841,37.061 C41.186,37.147 41.512,37.27 41.822,37.43 L41.822,39.132 C41.676,39.046 41.555,38.973 41.457,38.914 C41.358,38.854 41.228,38.788 41.063,38.715 C40.899,38.643 40.707,38.578 40.486,38.521 C40.265,38.463 40.038,38.435 39.806,38.435 C39.523,38.435 39.33,38.49 39.225,38.599 C39.12,38.708 39.067,38.818 39.067,38.927 C39.067,39.041 39.122,39.147 39.231,39.245 C39.341,39.343 39.584,39.465 39.963,39.611 C40.51,39.82 40.947,40.036 41.275,40.257 C41.604,40.478 41.837,40.721 41.976,40.985 C42.115,41.249 42.185,41.562 42.185,41.921" id="Fill-13" sketch:type="MSShapeGroup"></path>
            <path d="M48.959,41.921 C48.959,42.56 48.726,43.078 48.258,43.477 C47.791,43.876 47.097,44.075 46.177,44.075 C45.662,44.075 45.204,44.028 44.803,43.935 C44.402,43.841 43.964,43.708 43.49,43.535 L43.49,41.785 C43.905,42.021 44.265,42.202 44.57,42.325 C44.875,42.448 45.21,42.509 45.575,42.509 C46.19,42.509 46.498,42.341 46.498,42.003 C46.498,41.89 46.454,41.788 46.365,41.699 C46.276,41.61 46.121,41.51 45.9,41.398 C45.679,41.287 45.384,41.153 45.015,40.999 C44.559,40.798 44.171,40.529 43.853,40.192 C43.534,39.855 43.374,39.442 43.374,38.955 C43.374,38.608 43.48,38.275 43.692,37.956 C43.904,37.638 44.224,37.376 44.652,37.174 C45.081,36.971 45.598,36.87 46.204,36.87 C46.35,36.87 46.536,36.88 46.761,36.9 C46.987,36.921 47.271,36.975 47.616,37.061 C47.96,37.147 48.287,37.27 48.597,37.43 L48.597,39.132 C48.451,39.046 48.329,38.973 48.231,38.914 C48.133,38.854 48.002,38.788 47.838,38.715 C47.674,38.643 47.481,38.578 47.26,38.521 C47.039,38.463 46.813,38.435 46.58,38.435 C46.297,38.435 46.104,38.49 45.999,38.599 C45.894,38.708 45.842,38.818 45.842,38.927 C45.842,39.041 45.896,39.147 46.006,39.245 C46.115,39.343 46.359,39.465 46.737,39.611 C47.284,39.82 47.722,40.036 48.05,40.257 C48.378,40.478 48.611,40.721 48.75,40.985 C48.89,41.249 48.959,41.562 48.959,41.921" id="Fill-14" sketch:type="MSShapeGroup"></path>
            <path d="M50.415,36.993 L52.883,36.993 L52.883,43.952 L50.415,43.952 L50.415,36.993 Z M52.685,35.386 C52.685,35.673 52.582,35.917 52.377,36.118 C52.172,36.318 51.928,36.418 51.646,36.418 C51.454,36.418 51.28,36.373 51.123,36.282 C50.965,36.19 50.841,36.066 50.75,35.909 C50.659,35.752 50.613,35.578 50.613,35.386 C50.613,35.104 50.713,34.86 50.914,34.655 C51.115,34.45 51.358,34.347 51.646,34.347 C51.928,34.347 52.172,34.45 52.377,34.655 C52.582,34.86 52.685,35.104 52.685,35.386 L52.685,35.386 Z" id="Fill-15" sketch:type="MSShapeGroup"></path>
            <path d="M62.262,40.465 C62.262,41.158 62.111,41.775 61.81,42.318 C61.51,42.86 61.06,43.289 60.46,43.603 C59.861,43.917 59.131,44.075 58.27,44.075 C57.408,44.075 56.678,43.917 56.079,43.603 C55.479,43.289 55.03,42.86 54.732,42.318 C54.434,41.775 54.284,41.158 54.284,40.465 C54.284,39.941 54.367,39.465 54.534,39.037 C54.7,38.608 54.953,38.229 55.292,37.898 C55.632,37.568 56.05,37.314 56.547,37.136 C57.043,36.959 57.618,36.87 58.27,36.87 C58.926,36.87 59.506,36.959 60.009,37.14 C60.513,37.32 60.93,37.571 61.26,37.895 C61.591,38.219 61.84,38.597 62.009,39.03 C62.177,39.463 62.262,39.941 62.262,40.465 L62.262,40.465 Z M59.671,40.465 C59.671,39.914 59.551,39.482 59.312,39.17 C59.073,38.858 58.725,38.702 58.27,38.702 C57.818,38.702 57.473,38.858 57.234,39.17 C56.995,39.482 56.875,39.914 56.875,40.465 C56.875,41.012 56.996,41.445 57.237,41.764 C57.479,42.083 57.823,42.243 58.27,42.243 C58.725,42.243 59.073,42.084 59.312,41.768 C59.551,41.451 59.671,41.017 59.671,40.465 L59.671,40.465 Z" id="Fill-16" sketch:type="MSShapeGroup"></path>
            <path d="M70.971,43.952 L68.51,43.952 L68.51,40.199 C68.51,39.816 68.447,39.482 68.322,39.197 C68.196,38.913 67.922,38.77 67.498,38.77 C67.297,38.77 67.121,38.808 66.968,38.883 C66.815,38.958 66.679,39.055 66.558,39.173 C66.437,39.292 66.336,39.406 66.254,39.515 C66.172,39.624 66.087,39.741 66.001,39.864 L66.001,43.952 L63.54,43.952 L63.54,36.993 L66.001,36.993 L66.001,37.991 C66.388,37.576 66.777,37.286 67.166,37.119 C67.556,36.953 67.99,36.87 68.469,36.87 C70.137,36.87 70.971,37.868 70.971,39.864 L70.971,43.952" id="Fill-17" sketch:type="MSShapeGroup"></path>
        </g>
    </g>
</svg>